<?xml version="1.0" standalone="no"?>
<!DOCTYPE svg PUBLIC "-//W3C//DTD SVG 20010904//EN"
 "http://www.w3.org/TR/2001/REC-SVG-20010904/DTD/svg10.dtd">
<svg version="1.0" xmlns="http://www.w3.org/2000/svg"
 width="512.000000pt" height="512.000000pt" viewBox="0 0 512.000000 512.000000"
 preserveAspectRatio="xMidYMid meet">
<metadata>
Created by potrace 1.15, written by Peter Selinger 2001-2017
</metadata>
<g transform="translate(0.000000,512.000000) scale(0.100000,-0.100000)"
fill="#000000" stroke="none">
<path d="M203 4958 c-174 -172 -196 -198 -191 -231 3 -19 32 5 192 163 103
102 192 193 197 203 8 14 5 17 -17 17 -21 0 -60 -33 -181 -152z"/>
<path d="M303 4858 c-140 -139 -264 -265 -275 -281 -10 -15 -18 -37 -16 -50 3
-18 49 23 292 263 158 157 292 293 297 303 8 14 5 17 -17 17 -22 0 -75 -47
-281 -252z"/>
<path d="M402 4758 c-194 -194 -362 -365 -373 -381 -11 -15 -19 -37 -17 -50 4
-18 67 40 392 363 213 212 392 393 397 403 8 14 5 17 -18 17 -22 0 -89 -62
-381 -352z"/>
<path d="M502 4658 c-249 -249 -462 -465 -473 -481 -11 -15 -19 -37 -17 -50 4
-18 84 57 492 463 268 267 492 493 497 503 8 14 5 17 -18 17 -22 0 -104 -76
-481 -452z"/>
<path d="M602 4558 c-304 -304 -562 -565 -573 -581 -11 -15 -19 -37 -17 -50 4
-18 101 75 592 563 323 322 592 593 597 603 8 14 5 17 -18 17 -23 0 -118 -91
-581 -552z"/>
<path d="M702 4458 c-359 -359 -662 -665 -673 -681 -11 -15 -19 -37 -17 -50 4
-18 118 92 692 663 378 377 692 693 697 703 8 14 5 17 -18 17 -23 0 -133 -106
-681 -652z"/>
<path d="M802 4358 c-414 -414 -762 -765 -773 -781 -11 -15 -19 -37 -17 -50 4
-18 136 109 792 763 433 432 792 793 797 803 8 14 5 17 -18 17 -23 0 -148
-120 -781 -752z"/>
<path d="M902 4258 c-469 -469 -862 -865 -873 -881 -11 -15 -19 -37 -17 -50 4
-18 153 126 892 863 488 487 892 893 897 903 8 14 5 17 -18 17 -23 0 -162
-135 -881 -852z"/>
<path d="M1002 4158 c-524 -524 -962 -965 -973 -981 -11 -15 -19 -37 -17 -50
4 -18 170 144 992 963 543 542 992 993 997 1003 8 14 5 17 -18 17 -23 0 -177
-149 -981 -952z"/>
<path d="M1720 4675 c-240 -239 -441 -435 -448 -435 -19 0 -99 -77 -123 -119
-12 -20 -273 -288 -580 -596 -463 -465 -559 -565 -559 -588 0 -15 3 -27 7 -27
4 0 252 244 550 542 l543 543 0 -65 0 -65 -550 -550 c-456 -457 -550 -555
-550 -578 0 -15 3 -27 7 -27 4 0 252 244 550 542 l543 543 0 -65 0 -65 -307
-306 c-275 -274 -312 -308 -347 -314 -102 -18 -213 -113 -241 -208 -8 -28 -15
-57 -15 -65 0 -8 -43 -59 -95 -113 -70 -72 -95 -105 -95 -123 0 -15 3 -26 6
-26 4 0 46 39 95 87 l89 87 0 -64 0 -63 -95 -98 c-70 -72 -95 -105 -95 -123 0
-15 3 -26 6 -26 4 0 46 39 95 87 l89 87 0 -64 0 -63 -95 -98 c-70 -72 -95
-105 -95 -123 0 -15 3 -26 6 -26 4 0 46 39 95 87 l89 87 0 -64 0 -63 -95 -98
c-70 -72 -95 -105 -95 -123 0 -15 3 -26 6 -26 4 0 46 39 95 87 l89 87 0 -64 0
-63 -95 -98 c-70 -72 -95 -105 -95 -123 0 -15 3 -26 6 -26 4 0 46 39 95 87
l89 87 0 -64 0 -63 -95 -98 c-70 -72 -95 -105 -95 -123 0 -15 3 -26 6 -26 4 0
46 39 95 87 l89 87 0 -64 0 -63 -95 -98 c-70 -72 -95 -105 -95 -123 0 -15 3
-26 6 -26 4 0 46 39 95 87 l89 87 0 -64 0 -63 -95 -98 c-70 -72 -95 -105 -95
-123 0 -15 3 -26 6 -26 4 0 46 39 95 87 l89 87 0 -64 0 -63 -95 -98 c-70 -72
-95 -105 -95 -123 0 -15 3 -26 6 -26 4 0 46 39 95 87 l89 87 0 -64 0 -63 -95
-98 c-70 -72 -95 -105 -95 -123 0 -15 3 -26 6 -26 4 0 46 39 95 87 l89 87 0
-64 0 -63 -95 -98 c-70 -72 -95 -105 -95 -123 0 -15 3 -26 6 -26 4 0 46 39 95
87 l89 87 0 -64 0 -63 -95 -98 c-70 -72 -95 -105 -95 -123 0 -15 3 -26 6 -26
4 0 46 39 95 87 l89 87 0 -64 0 -63 -95 -98 c-70 -72 -95 -105 -95 -123 0 -15
3 -26 6 -26 4 0 46 39 95 87 56 54 89 80 89 70 0 -14 10 -17 47 -17 l47 0
-117 -118 c-64 -66 -117 -122 -117 -125 0 -4 12 -7 27 -7 22 0 113 86 525 497
l498 498 0 -65 0 -65 -416 -415 c-228 -228 -420 -423 -425 -432 -8 -15 -5 -18
18 -18 22 0 95 68 425 397 l398 397 0 -64 0 -65 -316 -315 c-173 -173 -320
-323 -325 -333 -8 -14 -5 -17 17 -17 23 0 82 54 326 297 l298 297 0 -64 0 -65
-216 -215 c-118 -118 -220 -223 -225 -233 -8 -14 -5 -17 17 -17 22 0 67 39
225 197 l199 197 0 -65 0 -64 -116 -115 c-135 -135 -146 -150 -108 -150 20 0
55 29 153 125 l128 125 63 0 64 0 -117 -118 c-64 -66 -117 -122 -117 -125 0
-4 12 -7 26 -7 20 0 56 30 153 125 l128 125 63 0 64 0 -117 -118 c-64 -66
-117 -122 -117 -125 0 -4 12 -7 26 -7 20 0 56 30 153 125 l128 125 63 0 64 0
-117 -118 c-64 -66 -117 -122 -117 -125 0 -4 12 -7 26 -7 20 0 56 30 153 125
l128 125 63 0 64 0 -117 -118 c-64 -66 -117 -122 -117 -125 0 -4 12 -7 26 -7
20 0 56 30 153 125 l128 125 63 0 64 0 -117 -118 c-64 -66 -117 -122 -117
-125 0 -4 12 -7 26 -7 20 0 56 30 153 125 l128 125 63 0 64 0 -117 -118 c-64
-66 -117 -122 -117 -125 0 -4 12 -7 26 -7 20 0 56 30 153 125 l128 125 63 0
64 0 -117 -118 c-64 -66 -117 -122 -117 -125 0 -4 12 -7 26 -7 20 0 56 30 153
125 l128 125 63 0 64 0 -117 -118 c-64 -66 -117 -122 -117 -125 0 -4 12 -7 26
-7 20 0 56 30 153 125 l128 125 63 0 64 0 -117 -118 c-64 -66 -117 -122 -117
-125 0 -4 12 -7 26 -7 20 0 56 30 153 125 l128 125 63 0 64 0 -117 -118 c-64
-66 -117 -122 -117 -125 0 -4 12 -7 26 -7 20 0 56 30 153 125 l128 125 63 0
64 0 -117 -118 c-64 -66 -117 -122 -117 -125 0 -4 12 -7 26 -7 20 0 56 30 153
125 l128 125 63 0 64 0 -117 -118 c-64 -66 -117 -122 -117 -125 0 -4 12 -7 26
-7 20 0 56 30 153 125 l128 125 63 0 64 0 -117 -118 c-64 -66 -117 -122 -117
-125 0 -4 12 -7 26 -7 20 0 56 30 153 125 l128 125 63 0 64 0 -117 -118 c-64
-66 -117 -122 -117 -125 0 -4 12 -7 26 -7 20 0 56 30 153 125 l128 125 61 0
62 0 0 63 0 62 325 325 325 325 0 -65 0 -65 -431 -430 c-236 -237 -435 -438
-440 -448 -8 -14 -5 -17 18 -17 22 0 98 70 440 412 l413 412 0 -64 0 -65 -331
-330 c-181 -182 -335 -338 -340 -347 -8 -15 -5 -18 17 -18 23 0 84 56 341 312
l313 312 0 -64 0 -65 -231 -230 c-126 -127 -235 -238 -240 -248 -8 -14 -5 -17
17 -17 22 0 69 41 241 212 l213 212 0 -65 0 -64 -131 -130 c-150 -150 -162
-165 -123 -165 20 0 55 29 153 125 l128 125 63 0 64 0 -120 -122 c-103 -106
-116 -123 -97 -126 33 -5 58 16 261 221 143 145 182 190 182 211 0 14 -3 26
-6 26 -4 0 -51 -44 -105 -97 l-99 -97 0 64 0 63 105 108 c78 80 105 114 105
133 0 14 -3 26 -6 26 -4 0 -51 -44 -105 -97 l-99 -97 0 64 0 63 105 108 c78
80 105 114 105 133 0 14 -3 26 -6 26 -4 0 -51 -44 -105 -97 l-99 -97 0 64 0
63 105 108 c78 80 105 114 105 133 0 14 -3 26 -6 26 -4 0 -51 -44 -105 -97
l-99 -97 0 64 0 63 105 108 c78 80 105 114 105 133 0 14 -3 26 -6 26 -4 0 -51
-44 -105 -97 l-99 -97 0 64 0 63 105 108 c78 80 105 114 105 133 0 14 -3 26
-6 26 -4 0 -51 -44 -105 -97 l-99 -97 0 64 0 63 105 108 c78 80 105 114 105
133 0 14 -3 26 -6 26 -4 0 -51 -44 -105 -97 l-99 -97 0 64 0 63 105 108 c78
80 105 114 105 133 0 14 -3 26 -6 26 -4 0 -51 -44 -105 -97 l-99 -97 0 64 0
63 105 108 c78 80 105 114 105 133 0 14 -3 26 -6 26 -4 0 -51 -44 -105 -97
l-99 -97 0 64 0 63 105 108 c78 80 105 114 105 133 0 14 -3 26 -6 26 -4 0 -51
-44 -105 -97 l-99 -97 0 64 0 63 105 108 c78 80 105 114 105 133 0 14 -3 26
-6 26 -4 0 -51 -44 -105 -97 l-99 -97 0 64 0 63 105 108 c78 80 105 114 105
133 0 14 -3 26 -6 26 -4 0 -51 -44 -105 -97 l-99 -97 0 64 0 63 105 108 c78
80 105 114 105 133 0 14 -3 26 -6 26 -4 0 -51 -43 -104 -95 l-97 -96 -6 58 -6
57 109 112 c83 84 110 119 110 138 0 14 -3 26 -7 26 -3 0 -57 -50 -119 -112
-63 -61 -115 -110 -117 -107 -2 2 -14 19 -26 37 l-23 33 146 149 c114 115 146
154 146 174 0 22 -3 25 -17 17 -10 -5 -85 -77 -167 -159 l-149 -150 -36 21
c-20 11 -38 22 -40 24 -3 2 88 97 202 212 166 167 207 213 207 235 0 22 -3 25
-17 17 -10 -5 -117 -109 -238 -230 l-220 -221 -65 0 -64 0 302 303 c247 249
302 308 302 331 0 22 -3 25 -17 17 -10 -5 -162 -154 -338 -330 l-320 -321 -65
0 -64 0 402 403 c334 335 402 408 402 431 0 22 -3 25 -16 18 -8 -5 -240 -233
-515 -508 l-499 -499 0 65 0 65 515 515 c426 427 515 520 515 543 0 15 -3 27
-7 27 -4 0 -236 -228 -515 -507 l-508 -508 0 65 0 65 515 515 c426 427 515
520 515 543 0 15 -3 27 -7 27 -4 0 -236 -228 -515 -507 l-508 -508 0 65 0 65
515 515 c426 427 515 520 515 543 0 15 -3 27 -7 27 -4 0 -236 -228 -515 -507
l-508 -508 0 65 0 65 515 515 c426 427 515 520 515 543 0 15 -3 27 -7 27 -4 0
-236 -228 -515 -507 l-508 -508 0 65 0 65 515 515 c426 427 515 520 515 543 0
15 -3 27 -7 27 -4 0 -236 -228 -515 -507 l-508 -508 0 65 0 65 515 515 c430
430 515 520 515 543 0 23 -3 26 -17 18 -10 -5 -243 -235 -518 -510 l-499 -500
-18 47 -18 47 480 480 c264 264 480 484 480 488 0 4 -12 7 -27 7 -22 0 -108
-81 -494 -466 l-467 -466 -36 28 -36 29 430 430 c237 237 430 434 430 438 0 4
-12 7 -27 7 -22 0 -102 -75 -453 -424 l-425 -425 -52 12 -53 12 396 395 c217
217 400 403 405 413 8 14 5 17 -18 17 -22 0 -98 -71 -443 -415 l-416 -415 -64
0 -65 0 408 408 c224 224 407 411 407 415 0 4 -12 7 -27 7 -22 0 -101 -74
-443 -415 -228 -228 -423 -415 -433 -415 -10 0 -17 -8 -17 -18 0 -25 -108
-130 -114 -111 -3 8 -9 30 -14 50 l-10 36 420 419 c230 231 424 427 429 437 8
14 5 17 -18 17 -22 0 -97 -70 -438 -410 l-411 -410 -21 43 -21 44 350 349
c192 192 354 357 359 367 8 14 5 17 -18 17 -22 0 -88 -61 -373 -346 l-347
-345 -25 39 -26 39 290 289 c159 159 294 297 299 307 8 14 5 17 -17 17 -23 0
-81 -53 -318 -289 l-291 -290 -32 32 -33 33 241 239 c132 132 245 248 250 258
8 14 5 17 -17 17 -22 0 -73 -46 -270 -241 l-242 -242 -34 24 c-18 12 -35 24
-37 26 -3 2 88 97 202 211 114 115 207 211 207 215 0 4 -12 7 -26 7 -22 0 -69
-41 -230 -201 l-202 -201 -47 17 -46 18 175 177 c97 97 176 179 176 183 0 4
-12 7 -26 7 -21 0 -65 -37 -203 -173 l-176 -174 -53 11 -52 11 145 145 c81 80
151 153 156 163 8 14 5 17 -17 17 -21 0 -61 -34 -188 -160 l-162 -160 -64 0
-64 0 152 153 c84 85 152 157 152 160 0 4 -12 7 -26 7 -21 0 -63 -36 -193
-165 -92 -91 -172 -165 -179 -165 -6 0 -46 -11 -88 -24 l-77 -25 184 187 c156
158 181 187 162 190 -13 2 -33 -4 -45 -12 -13 -9 -222 -215 -465 -458 -359
-358 -441 -435 -433 -407 14 48 14 49 -22 49 -31 0 -7 25 375 408 224 224 407
411 407 415 0 4 -12 7 -27 7 -22 0 -101 -74 -443 -415 l-416 -415 -64 0 -65 0
408 408 c224 224 407 411 407 415 0 4 -12 7 -27 7 -22 0 -104 -77 -463 -435z
m820 -380 l-115 -115 -3 61 -3 62 53 54 52 53 65 0 66 0 -115 -115z m-62 -262
l-243 -243 -57 0 c-32 0 -58 3 -58 7 0 5 134 142 298 306 l297 297 3 -62 3
-62 -243 -243z m-684 192 c-13 -42 -24 -81 -24 -88 0 -7 -112 -125 -250 -262
l-250 -250 0 65 0 65 272 272 c150 150 274 273 274 273 1 0 -9 -34 -22 -75z
m939 -117 c8 -5 -44 -63 -148 -166 l-160 -159 -59 5 -59 4 204 204 204 204 3
-42 c2 -24 9 -46 15 -50z m809 10 c14 -2 -1 -22 -67 -88 l-85 -85 0 65 0 64
58 59 57 58 9 -35 c6 -22 16 -36 28 -38z m-2122 -143 l-145 -145 -3 62 -3 62
83 83 83 83 65 0 65 0 -145 -145z m2340 142 c0 -1 -92 -94 -204 -206 l-204
-204 20 84 19 84 122 123 122 122 62 0 c35 0 63 -1 63 -3z m117 -32 l28 -24
-600 -601 -600 -600 -65 0 -65 0 190 191 c105 105 219 211 255 235 82 56 179
151 227 223 40 61 570 601 590 601 6 0 25 -11 40 -25z m-1647 -100 l-115 -115
-3 61 -3 62 53 54 52 53 65 0 66 0 -115 -115z m455 -145 l-260 -260 -3 62 -3
62 198 198 198 198 65 0 65 0 -260 -260z m355 196 c0 -38 -6 -46 -102 -143
-100 -101 -104 -103 -148 -103 -58 0 -70 -12 -70 -69 0 -44 -3 -49 -97 -143
-96 -96 -98 -98 -145 -98 -26 0 -50 5 -54 11 -4 7 116 134 292 310 317 317
324 322 324 235z m-1524 -365 l-246 -246 0 65 0 65 243 243 242 242 3 -62 3
-62 -245 -245z m1877 -323 c-469 -470 -538 -535 -541 -513 -3 22 -8 25 -40 25
-36 0 -27 10 538 575 l575 575 3 -62 3 -62 -538 -538z m-1617 443 l10 -50
-258 -258 -258 -258 0 65 0 65 242 242 c134 134 245 243 248 243 4 0 11 -22
16 -49z m1617 -643 l-538 -538 -3 62 -3 62 538 538 538 538 3 -62 3 -62 -538
-538z m-1834 166 l-284 -284 -3 62 -3 62 267 267 268 268 20 -45 19 -46 -284
-284z m2059 -141 l-313 -313 -65 0 -65 0 375 375 375 375 3 -62 3 -62 -313
-313z m-2715 85 l-208 -208 -65 0 -65 0 270 270 270 270 3 -62 3 -62 -208
-208z m995 255 l23 -36 -323 -324 -323 -323 -3 62 -3 62 298 298 c164 164 300
298 303 298 3 -1 15 -17 28 -37z m112 -143 c0 -3 -166 -172 -370 -375 l-370
-370 0 65 0 65 342 342 342 342 28 -32 c15 -18 27 -34 28 -37z m1708 -297
l-213 -213 -65 0 -65 0 275 275 275 275 3 -62 3 -62 -213 -213z m-2715 85
l-108 -108 -65 0 -65 0 170 170 170 170 3 -62 3 -62 -108 -108z m914 -85
l-212 -213 -65 0 -65 0 239 239 240 240 37 -27 38 -27 -212 -212z m166 -35
l-178 -178 -65 0 -65 0 199 199 199 199 44 -21 44 -21 -178 -178z m1705 -95
c-139 -139 -143 -143 -146 -113 -3 26 -7 30 -35 30 -30 0 -23 8 143 175 l175
175 3 -62 3 -62 -143 -143z m-1382 224 c2 -2 -75 -81 -171 -177 -136 -136
-175 -170 -175 -152 0 19 -5 22 -42 22 l-43 0 169 169 168 168 46 -13 c25 -8
47 -15 48 -17z m269 -137 l-170 -170 -65 0 -65 0 149 149 149 149 81 20 c45
11 83 20 86 21 3 0 -72 -75 -165 -169z m-1634 -34 l-71 -71 0 65 0 64 68 69
67 68 3 -63 3 -62 -70 -70z m1294 -106 l-270 -270 -3 62 -3 62 208 208 208
208 65 0 65 0 -270 -270z m1451 -149 l-146 -146 0 65 0 65 143 143 142 142 3
-62 3 -62 -145 -145z m-3043 -243 l-368 -368 -3 62 -3 62 368 368 368 368 3
-62 3 -62 -368 -368z m3513 340 c22 -3 16 -12 -71 -98 l-95 -95 0 65 0 64 68
69 67 68 3 -35 c3 -28 8 -35 28 -38z m-3701 -128 l-180 -180 -3 62 -3 62 118
118 118 118 65 0 65 0 -180 -180z m100 -100 l-280 -280 -3 62 -3 62 218 218
218 218 65 0 65 0 -280 -280z m761 -39 l-146 -146 0 65 0 65 143 143 142 142
3 -62 3 -62 -145 -145z m2874 74 l-195 -195 -3 62 -3 62 133 133 133 133 65 0
65 0 -195 -195z m367 181 c4 -4 -121 -135 -277 -292 l-285 -284 -3 62 -3 62
233 234 233 233 48 -4 c26 -2 51 -7 54 -11z m-2451 -265 l-146 -146 0 65 0 65
143 143 142 142 3 -62 3 -62 -145 -145z m790 -10 l-146 -146 0 65 0 65 143
143 142 142 3 -62 3 -62 -145 -145z m790 -10 l-146 -146 0 65 0 65 143 143
142 142 3 -62 3 -62 -145 -145z m-3043 -243 l-368 -368 -3 62 -3 62 368 368
368 368 3 -62 3 -62 -368 -368z m3989 441 l12 -40 -325 -325 -324 -324 -3 62
-3 62 307 307 c169 169 311 306 316 303 4 -3 13 -23 20 -45z m-3316 -368
l-146 -146 0 65 0 65 143 143 142 142 3 -62 3 -62 -145 -145z m702 -98 l-233
-233 -65 0 -65 0 295 295 295 295 3 -62 3 -62 -233 -233z m795 -5 l-228 -228
-65 0 -65 0 290 290 290 290 3 -62 3 -62 -228 -228z m1505 -95 l-323 -323 -3
62 -3 62 323 323 323 323 3 -62 3 -62 -323 -323z m-710 90 l-223 -223 -65 0
-65 0 285 285 285 285 3 -62 3 -62 -223 -223z m-2965 -165 l-368 -368 -3 62
-3 62 368 368 368 368 3 -62 3 -62 -368 -368z m677 79 l-145 -147 -3 62 -3 62
143 143 143 143 5 -57 5 -58 -145 -148z m940 153 c5 -3 -60 -75 -145 -160 -85
-85 -155 -149 -155 -142 0 8 -17 12 -52 12 l-53 0 195 195 195 195 3 -47 c2
-26 7 -50 12 -53z m798 0 c10 0 -50 -67 -143 -160 -102 -102 -161 -155 -163
-145 -3 11 -16 15 -50 15 l-47 0 190 190 190 190 3 -45 c2 -34 7 -45 20 -45z
m1260 -357 l-323 -323 -3 62 -3 62 323 323 323 323 3 -62 3 -62 -323 -323z
m-630 170 c-114 -115 -144 -139 -146 -123 -3 16 -11 20 -45 20 l-42 0 185 185
185 185 3 -62 3 -62 -143 -143z m-3045 -245 l-368 -368 -3 62 -3 62 368 368
368 368 3 -62 3 -62 -368 -368z m782 182 l-250 -250 -3 62 -3 62 188 188 188
188 65 0 65 0 -250 -250z m305 105 l-145 -145 -62 0 -63 0 0 -63 0 -62 -145
-145 -145 -145 0 65 0 65 287 287 288 288 65 0 65 0 -145 -145z m490 -110
l-255 -255 -3 62 -3 62 193 193 193 193 65 0 65 0 -255 -255z m310 110 l-145
-145 -65 0 -65 0 145 145 145 145 65 0 65 0 -145 -145z m485 -115 l-260 -260
-3 62 -3 62 198 198 198 198 65 0 65 0 -260 -260z m315 115 l-145 -145 -65 0
-65 0 145 145 145 145 65 0 65 0 -145 -145z m988 -412 l-323 -323 -3 62 -3 62
323 323 323 323 3 -62 3 -62 -323 -323z m-632 168 l-146 -146 0 65 0 65 143
143 142 142 3 -62 3 -62 -145 -145z m-3043 -243 l-368 -368 -3 62 -3 62 368
368 368 368 3 -62 3 -62 -368 -368z m1463 63 l-146 -146 0 65 0 65 143 143
142 142 3 -62 3 -62 -145 -145z m790 -10 l-146 -146 0 65 0 65 143 143 142
142 3 -62 3 -62 -145 -145z m1422 -178 l-323 -323 -3 62 -3 62 323 323 323
323 3 -62 3 -62 -323 -323z m-632 168 l-146 -146 0 65 0 65 143 143 142 142 3
-62 3 -62 -145 -145z m-3043 -243 l-368 -368 -3 62 -3 62 368 368 368 368 3
-62 3 -62 -368 -368z m673 73 l-146 -146 0 65 0 65 143 143 142 142 3 -62 3
-62 -145 -145z m697 -103 l-238 -238 -65 0 -65 0 145 145 c80 80 150 145 157
145 7 0 13 6 13 12 0 7 64 77 143 156 l142 142 3 -62 3 -62 -238 -238z m795
-5 l-233 -233 -65 0 -65 0 295 295 295 295 3 -62 3 -62 -233 -233z m1510 -90
l-323 -323 -3 62 -3 62 323 323 323 323 3 -62 3 -62 -323 -323z m-715 85
l-228 -228 -65 0 -65 0 290 290 290 290 3 -62 3 -62 -228 -228z m-2960 -160
l-368 -368 -3 62 -3 62 368 368 368 368 3 -62 3 -62 -368 -368z m673 73 l-146
-146 0 65 0 65 143 143 142 142 3 -62 3 -62 -145 -145z m797 -1 l-143 -145
-61 3 -62 4 199 199 199 199 5 -57 5 -58 -142 -145z m937 150 c5 -3 -60 -75
-145 -160 -85 -85 -155 -149 -155 -142 0 8 -17 12 -52 12 l-53 0 195 195 195
195 3 -47 c2 -26 7 -50 12 -53z m1268 -347 l-323 -323 -3 62 -3 62 323 323
323 323 3 -62 3 -62 -323 -323z m-630 170 c-92 -92 -144 -138 -146 -128 -3 11
-16 15 -50 15 l-47 0 190 190 190 190 3 -62 3 -62 -143 -143z m-3045 -245
l-368 -368 -3 62 -3 62 368 368 368 368 3 -62 3 -62 -368 -368z m777 177
l-245 -245 -3 62 -3 62 183 183 183 183 65 0 65 0 -245 -245z m300 100 l-145
-145 -57 0 -58 0 0 -58 0 -57 -145 -145 -145 -145 0 65 0 65 282 282 283 283
65 0 65 0 -145 -145z m495 -105 l-250 -250 -3 62 -3 62 188 188 188 188 65 0
65 0 -250 -250z m305 105 l-145 -145 -62 0 -63 0 0 -63 0 -62 -145 -145 -145
-145 0 65 0 65 287 287 288 288 65 0 65 0 -145 -145z m490 -110 l-255 -255 -3
62 -3 62 193 193 193 193 65 0 65 0 -255 -255z m310 110 l-145 -145 -65 0 -65
0 145 145 145 145 65 0 65 0 -145 -145z m998 -402 l-323 -323 -3 62 -3 62 323
323 323 323 3 -62 3 -62 -323 -323z m-632 168 l-146 -146 0 65 0 65 143 143
142 142 3 -62 3 -62 -145 -145z m-3043 -243 l-368 -368 -3 62 -3 62 368 368
368 368 3 -62 3 -62 -368 -368z m2253 53 l-146 -146 0 65 0 65 143 143 142
142 3 -62 3 -62 -145 -145z m1422 -178 l-323 -323 -3 62 -3 62 323 323 323
323 3 -62 3 -62 -323 -323z m-632 168 l-146 -146 0 65 0 65 143 143 142 142 3
-62 3 -62 -145 -145z m-3043 -243 l-368 -368 -3 62 -3 62 368 368 368 368 3
-62 3 -62 -368 -368z m673 73 l-146 -146 0 65 0 65 143 143 142 142 3 -62 3
-62 -145 -145z m687 -113 l-248 -248 -65 0 -65 0 145 145 c101 101 152 145
167 145 17 0 23 6 23 22 0 16 44 67 143 166 l142 142 3 -62 3 -62 -248 -248z
m795 -5 l-243 -243 -65 0 -65 0 145 145 c80 80 153 145 162 145 10 0 18 7 18
17 0 10 64 82 143 161 l142 142 3 -62 3 -62 -243 -243z m888 88 l-146 -146 0
65 0 65 143 143 142 142 3 -62 3 -62 -145 -145z m-2370 -170 l-146 -146 0 65
0 65 143 143 142 142 3 -62 3 -62 -145 -145z m787 -13 l-148 -148 -65 0 -65 0
210 210 210 210 3 -62 3 -62 -148 -148z m795 -5 l-143 -143 -65 0 -65 0 205
205 205 205 3 -62 3 -62 -143 -143z m795 -5 c-76 -76 -141 -138 -145 -138 -5
0 -8 26 -8 57 l0 58 143 143 142 142 3 -62 3 -62 -138 -138z m-2193 7 l-145
-145 -65 0 -65 0 145 145 145 145 65 0 65 0 -145 -145z m200 0 l-145 -145 -65
0 -65 0 145 145 145 145 65 0 65 0 -145 -145z m600 0 l-145 -145 -65 0 -65 0
145 145 145 145 65 0 65 0 -145 -145z m200 0 l-145 -145 -65 0 -65 0 145 145
145 145 65 0 65 0 -145 -145z m498 -102 c-41 -42 -44 -43 -107 -43 l-66 0 105
105 105 106 3 -62 c3 -61 2 -63 -40 -106z m795 -5 c-35 -36 -40 -38 -102 -38
l-66 0 100 100 100 101 3 -62 c3 -60 2 -63 -35 -101z"/>
<path d="M4996 150 c-136 -133 -149 -150 -111 -150 18 0 49 23 111 82 102 98
127 130 122 161 -3 19 -19 7 -122 -93z"/>
</g>
</svg>
